Barnacle – Tumbling Oysters
…
gene_component_counts <- factor_long %>%
  filter(loading > 0) %>%
  group_by(lambda_gene, gene) %>%
  summarize(
    n_components = n_distinct(component),
    .groups = "drop"
  )

multi_component_summary <- gene_component_counts %>%
  group_by(lambda_gene, n_components) %>%
  summarize(n_genes = n(), .groups = "drop")

multi_component_summary

# A tibble: 75 × 3
   lambda_gene n_components n_genes
   <chr>              <int>   <int>
 1 0.00                  27       1
 2 0.00                  28       1
 3 0.00                  29       5
 4 0.00                  30       6
 5 0.00                  31      23
 6 0.00                  32      75
 7 0.00                  33     205
 8 0.00                  34     936
 9 0.00                  35    8548
10 0.1                   28       1
# ℹ 65 more rows
…
