…
``` r
avQpcr <- group_by(qpcr, FRP) %>%
summarize(avg_sq = mean(sq_all.runs_mean, na.rm=TRUE), trtmnt_tank, infection_status, maturity, sample_pos.neg) %>%
distinct_all() %>%
filter(trtmnt_tank == "cold" | trtmnt_tank == "warm" | trtmnt_tank == "ambient")
```

    ## `summarise()` has grouped output by 'FRP'. You can override using the `.groups` argument.

``` r
avQpcr
```

    ## # A tibble: 210 x 6
    ## # Groups:   FRP [172]
    ##      FRP avg_sq trtmnt_tank infection_status maturity sample_pos.neg
    ##    <int>  <dbl> <chr>                  <int> <chr>    <chr>         
    ##  1  6101   42.2 cold                       0 I        pos           
    ##  2  6102   32.5 cold                       0 I        neg           
    ##  3  6102   32.5 cold                       0 I        pos           
    ##  4  6103  183.  cold                       1 I        pos           
    ##  5  6104   18.6 cold                       0 I        neg           
    ##  6  6104   18.6 cold                       0 I        pos           
    ##  7  6106   78.8 cold                       0 M        pos           
    ##  8  6107   61.2 ambient                    0 M        neg           
    ##  9  6107   61.2 ambient                    0 M        pos           
    ## 10  6108   71.1 cold                       1 I        pos           
    ## # … with 200 more rows
…
