Barnacle – Tumbling Oysters
…
gene_component_counts <- factor_long %>%
  filter(loading > 0) %>%
  group_by(lambda_gene, gene) %>%
  summarize(
    n_components = n_distinct(component),
    .groups = "drop"
  )

multi_component_summary <- gene_component_counts %>%
  group_by(lambda_gene, n_components) %>%
  summarize(n_genes = n(), .groups = "drop")

multi_component_summary

# A tibble: 59 × 3
   lambda_gene n_components n_genes
   <chr>              <int>   <int>
 1 1                     27       2
 2 1                     28       3
 3 1                     29       5
 4 1                     30      17
 5 1                     31      54
 6 1                     32     127
 7 1                     33     402
 8 1                     34    1526
 9 1                     35    7664
10 10                    24       3
# ℹ 49 more rows
…
