Context dependent DNA methylation :: miRNA regulation of gene expression – Tumbling Oysters
…
    print(context_summary)
  } else {
    cat("Column 'og_id' not found in data\n")
    print(head(context_true_data))
  }
}

Number of rows with context dependent = TRUE: 239 

# A tibble: 239 × 14
   og_id   n_records mean_n_species mean_apul_context_st…¹ mean_apul_improvement
   <chr>       <int>          <dbl>                  <dbl>                 <dbl>
 1 OG_000…         1              2                NaN                NaN       
 2 OG_001…         1              3                  0.259              0.000355
 3 OG_003…         1              1                NaN                NaN       
 4 OG_004…         1              3                  0.719              0.0805  
 5 OG_004…         1              3                  0.331              0.00357 
 6 OG_006…         1              2                  0.497              0.00731 
 7 OG_006…         1              2                  1.19               0.00175 
 8 OG_008…         1              2                NaN                NaN       
 9 OG_008…         1              1                NaN                NaN       
10 OG_011…         1              2                  1.51               0.0157  
# ℹ 229 more rows
# ℹ abbreviated name: ¹​mean_apul_context_strength
# ℹ 9 more variables: mean_apul_r2 <dbl>, mean_peve_context_strength <dbl>,
#   mean_peve_improvement <dbl>, mean_peve_r2 <dbl>,
#   mean_ptua_context_strength <dbl>, mean_ptua_improvement <dbl>,
#   mean_ptua_r2 <dbl>, mean_mean_context_strength <dbl>, mean_n_records <dbl>

# Display detailed view of context-dependent records
if (exists("context_true_data") && nrow(context_true_data) > 0) {

  cat("\nDetailed view of context-dependent records:\n")
  print(context_true_data)
}

Detailed view of context-dependent records:
# A tibble: 239 × 15
   og_id n_species apul_context_strength apul_context_dependent apul_improvement
   <chr>     <dbl>                 <dbl> <lgl>                             <dbl>
 1 OG_0…         3                 1.47  FALSE                          0.000408
 2 OG_0…         3                 0.972 FALSE                          0.00673 
 3 OG_0…         3                 1.17  FALSE                          0.00495 
 4 OG_0…         3                 1.53  TRUE                           0.265   
 5 OG_0…         3                 0.979 FALSE                          0.000131
 6 OG_0…         3                 1.68  FALSE                          0.0154  
 7 OG_0…         3                 1.14  FALSE                          0.0257  
 8 OG_0…         3                 0.935 FALSE                          0.00783 
 9 OG_0…         3                 1.02  FALSE                          0.00689 
10 OG_0…         3                 1.08  FALSE                          0.000887
# ℹ 229 more rows
# ℹ 10 more variables: apul_r2 <dbl>, peve_context_strength <dbl>,
#   peve_context_dependent <lgl>, peve_improvement <dbl>, peve_r2 <dbl>,
#   ptua_context_strength <dbl>, ptua_context_dependent <lgl>,
#   ptua_improvement <dbl>, ptua_r2 <dbl>, mean_context_strength <dbl>
…
  species_ogs <- biomin_data %>%
    filter(.data[[col]] == TRUE | .data[[col]] == "TRUE" | .data[[col]] == "true") %>%
    select(og_id, all_of(col), where(is.numeric))
  
  if (nrow(species_ogs) > 0) {
    print(species_ogs)
  }
}

 apul - OGs with context-dependent = TRUE: 0 

 apul - OGs with context-dependent = TRUE: 47 
# A tibble: 47 × 13
   og_id apul_context_dependent n_species apul_context_strength apul_improvement
   <chr> <lgl>                      <dbl>                 <dbl>            <dbl>
 1 OG_0… TRUE                           3                 1.53            0.265 
 2 OG_0… TRUE                           3                 1.23            0.0558
 3 OG_0… TRUE                           3                 0.695           0.170 
 4 OG_0… TRUE                           3                 0.973           0.0433
 5 OG_1… TRUE                           3                 1.30            0.0848
 6 OG_1… TRUE                           3                 1.17            0.0586
 7 OG_0… TRUE                           3                 0.389           0.0725
 8 OG_0… TRUE                           3                 1.04            0.111 
 9 OG_0… TRUE                           3                 0.982           0.0635
10 OG_0… TRUE                           3                 0.885           0.0849
# ℹ 37 more rows
# ℹ 8 more variables: apul_r2 <dbl>, peve_context_strength <dbl>,
#   peve_improvement <dbl>, peve_r2 <dbl>, ptua_context_strength <dbl>,
#   ptua_improvement <dbl>, ptua_r2 <dbl>, mean_context_strength <dbl>

 peve - OGs with context-dependent = TRUE: 0 

 peve - OGs with context-dependent = TRUE: 69 
# A tibble: 69 × 13
   og_id peve_context_dependent n_species apul_context_strength apul_improvement
   <chr> <lgl>                      <dbl>                 <dbl>            <dbl>
 1 OG_0… TRUE                           3                 0.972        0.00673  
 2 OG_0… TRUE                           3                 0.979        0.000131 
 3 OG_0… TRUE                           3                 1.14         0.0257   
 4 OG_0… TRUE                           3                 1.08         0.000887 
 5 OG_0… TRUE                           3                 0.796        0.00436  
 6 OG_0… TRUE                           3                 1.35         0.0291   
 7 OG_0… TRUE                           3                 1.01         0.000222 
 8 OG_0… TRUE                           3                 0.970        0.0000296
 9 OG_0… TRUE                           3                 0.895        0.00291  
10 OG_0… TRUE                           3                 0.838        0.00305  
# ℹ 59 more rows
# ℹ 8 more variables: apul_r2 <dbl>, peve_context_strength <dbl>,
#   peve_improvement <dbl>, peve_r2 <dbl>, ptua_context_strength <dbl>,
#   ptua_improvement <dbl>, ptua_r2 <dbl>, mean_context_strength <dbl>

 ptua - OGs with context-dependent = TRUE: 0 

 ptua - OGs with context-dependent = TRUE: 159 
# A tibble: 159 × 13
   og_id ptua_context_dependent n_species apul_context_strength apul_improvement
   <chr> <lgl>                      <dbl>                 <dbl>            <dbl>
 1 OG_0… TRUE                           3                 1.47          0.000408
 2 OG_0… TRUE                           3                 0.972         0.00673 
 3 OG_0… TRUE                           3                 1.17          0.00495 
 4 OG_0… TRUE                           3                 0.979         0.000131
 5 OG_0… TRUE                           3                 1.68          0.0154  
 6 OG_0… TRUE                           3                 0.935         0.00783 
 7 OG_0… TRUE                           3                 1.02          0.00689 
 8 OG_0… TRUE                           3                 1.08          0.000887
 9 OG_0… TRUE                           3                 0.796         0.00436 
10 OG_0… TRUE                           3                 1.23          0.0558  
# ℹ 149 more rows
# ℹ 8 more variables: apul_r2 <dbl>, peve_context_strength <dbl>,
#   peve_improvement <dbl>, peve_r2 <dbl>, ptua_context_strength <dbl>,
#   ptua_improvement <dbl>, ptua_r2 <dbl>, mean_context_strength <dbl>

 mean - OGs with context-dependent = TRUE: 0 

# Summary of shared OGs with quantitative metrics
if (exists("two_species_ogs") && nrow(two_species_ogs) > 0) {
  cat("\n=== OGs Shared Across Two Species ===\n")
  two_species_summary <- two_species_ogs %>%
    select(og_id, all_of(context_cols), where(is.numeric))
  print(two_species_summary)
}

=== OGs Shared Across Two Species ===
# A tibble: 32 × 16
   og_id    apul_context_strength apul_context_dependent peve_context_strength
   <chr>                    <dbl> <lgl>                                  <dbl>
 1 OG_06119                 0.972 FALSE                                   1.25
 2 OG_07153                 0.979 FALSE                                   1.36
 3 OG_04467                 1.08  FALSE                                   1.25
 4 OG_07150                 0.796 FALSE                                   1.34
 5 OG_02190                 1.23  TRUE                                    1.20
 6 OG_08849                 1.01  FALSE                                   1.05
 7 OG_06616                 0.695 TRUE                                    1.00
 8 OG_01611                 1.26  FALSE                                   1.13
 9 OG_02666                 0.389 TRUE                                    1.33
10 OG_05666                 0.695 FALSE                                   1.00
# ℹ 22 more rows
# ℹ 12 more variables: peve_context_dependent <lgl>,
#   ptua_context_strength <dbl>, ptua_context_dependent <lgl>,
#   mean_context_strength <dbl>, n_species <dbl>, apul_improvement <dbl>,
#   apul_r2 <dbl>, peve_improvement <dbl>, peve_r2 <dbl>,
#   ptua_improvement <dbl>, ptua_r2 <dbl>, species_true_count <int>
…
    # Transpose for better readability
    quant_summary_long <- quant_summary %>%
      pivot_longer(everything(), names_to = "metric", values_to = "value")
    print(quant_summary_long)
  }
}

=== Quantitative Summary of Context-Dependent OGs ===
# A tibble: 44 × 2
   metric                      value
   <chr>                       <dbl>
 1 n_species_mean             1.92  
 2 n_species_sd               0.738 
 3 n_species_min              1     
 4 n_species_max              3     
 5 apul_context_strength_mean 0.965 
 6 apul_context_strength_sd   0.313 
 7 apul_context_strength_min  0.141 
 8 apul_context_strength_max  1.81  
 9 apul_improvement_mean      0.0369
10 apul_improvement_sd        0.0440
# ℹ 34 more rows
…
